{
  "name": "mekanismTome",
  "texture": "mekanismTome",
  "type": "food",
  "lore": [ "A basic Mekanism reference manual, covering entry-level power generation and processing.", "Consume to spend 5 Machinist Points to unlock basic Mekanism machines" ],
  "has-effect": true,
  "food-amount": 0,
  "food-saturation": 0,
  "max-stack-size":  1
}